{
    "$schema": "https://vega.github.io/schema/vega-lite/v5.json",
    "width": "container",
    "height": 300,
    "data": {
      "name": "table",
      "url": "https://onderzoek.amsterdam.nl/static/dashboard-kerncijfers/data/indicators/BEVTOTAAL.dsv",
      "format": {
        "type": "dsv",
        "delimiter": ";",
        "parse": {"value": "number", "areacode": "string", "year": "number"}
      }
    },
    "params": [
      {
        "bind": {"input": "range", "min":750000, "max": 1000000},
        "name": "min",
        "value": 750000
      }
    ],
    "transform": [
      {"filter": "datum.value < min"},
      {"filter": "datum.areaCode === 'STAD'"}
    ],
    "layer": [
      {
        "mark": "bar",
        "encoding": {
          "x": {
            "field": "year",
            "type": "nominal",
            "axis": {"labelOverlap": true, "labelSeparation": 20}
          },
          "y": {"field": "value", "type": "quantitative"},
          "tooltip": [{"field": "year"}, {"field": "value", "format": ","}],
          "color": {"value": "#004699"}
        }
      },
      {"mark": "text"}
    ]
  }