{
    "$schema": "https://vega.github.io/schema/vega-lite/v5.json",
    "width": "container",
    "height": 300,
    "data": {
      "name": "table",
      "values": [
        {"jaar": "2012", "waarde": 1989},
        {"jaar": "2013", "waarde": 6289},
        {"jaar": "2014", "waarde": 6389},
        {"jaar": "2015", "waarde": 6959},
        {"jaar": "2016", "waarde": 6532},
        {"jaar": "2017", "waarde": 6361},
        {"jaar": "2018", "waarde": 5611},
        {"jaar": "2019", "waarde": 4174},
        {"jaar": "2020", "waarde": 3971},
        {"jaar": "2021", "waarde": 3094}
      ]
    },
    "params": [
      {
        "bind": {"input": "range", "min": 0, "max": 6000},
        "name": "min",
        "value": 0
      }
    ],
    "transform": [
      {"filter": "datum.waarde > min"},
      {"filter": "datum.jaar !== '2012'"}
    ],
    "layer": [
      {
        "mark": "bar",
        "encoding": {
          "x": {
            "field": "jaar",
            "type": "nominal",
            "axis": {"labelOverlap": true, "labelSeparation": 20}
          },
          "y": {"field": "waarde", "type": "quantitative"},
          "tooltip": [{"field": "jaar"}, {"field": "waarde", "format": ","}],
          "color": {"value": "#004699"}
        }
      },
      {
        "mark": "text"
      }
    ]
  }