{
  "$schema": "https://vega.github.io/schema/vega-lite/v5.json",
  "title": {
    "text": "Hoe lang ga je op het stand in zee? 2022",
    "subtitle": "Bron: O&S"
  },
  "width": 800,
  "height": {"step": 52},
  "data": {
    "values": [
      {"antwoord": "60 minuten", "meting": "meting 1", "waarde": 1},
      {"antwoord": "50 minuten", "meting": "meting 1", "waarde": 3},
      {"antwoord": "40 minuten", "meting": "meting 1", "waarde": 5},
      {"antwoord": "30 minuten", "meting": "meting 1", "waarde": 15},
      {"antwoord": "20 minuten", "meting": "meting 1", "waarde": 25},
      {"antwoord": "10 minuten", "meting": "meting 1", "waarde": 35},
      {"antwoord": "0 minuten", "meting": "meting 1", "waarde": 5},
      {
        "antwoord": "weet niet / geen mening",
        "meting": "meting 1",
        "waarde": 11
      },
      {"antwoord": "60 minuten", "meting": "meting 2", "waarde": 5},
      {"antwoord": "50 minuten", "meting": "meting 2", "waarde": 10},
      {"antwoord": "40 minuten", "meting": "meting 2", "waarde": 10},
      {"antwoord": "30 minuten", "meting": "meting 2", "waarde": 15},
      {"antwoord": "20 minuten", "meting": "meting 2", "waarde": 5},
      {"antwoord": "10 minuten", "meting": "meting 2", "waarde": 15},
      {"antwoord": "0 minuten", "meting": "meting 2", "waarde": 25},
      {
        "antwoord": "weet niet / geen mening",
        "meting": "meting 2",
        "waarde": 15
      },
      {"antwoord": "60 minuten", "meting": "meting 3", "waarde": 2},
      {"antwoord": "50 minuten", "meting": "meting 3", "waarde": 2},
      {"antwoord": "40 minuten", "meting": "meting 3", "waarde": 2},
      {"antwoord": "30 minuten", "meting": "meting 3", "waarde": 5},
      {"antwoord": "20 minuten", "meting": "meting 3", "waarde": 46},
      {"antwoord": "10 minuten", "meting": "meting 3", "waarde": 5},
      {"antwoord": "0 minuten", "meting": "meting 3", "waarde": 2},
      {
        "antwoord": "weet niet / geen mening",
        "meting": "meting 3",
        "waarde": 36
      }
    ]
  },
  "layer": [
    {
      "mark": {"type": "bar", "height": 44},
      "encoding": {
        "color": {
          "field": "antwoord",
          "scale": {
            "range": [
              "#004699",
              "#3255a2",
              "#4f65ad",
              "#6777b7",
              "#7e89c1",
              "#949ccc",
              "#a9afd6",
              "#c9c9c9"
            ],
            "domain": [
              "60 minuten",
              "50 minuten",
              "40 minuten",
              "30 minuten",
              "20 minuten",
              "10 minuten",
              "0 minuten",
              "weet niet / geen mening"
            ]
          }
        }
      }
    },
    {
      "mark": {
        "size": 16,
        "type": "text",
        "align": "center",
        "fontWeight": "bold"
      },
      "encoding": {
        "x": {
          "type": "quantitative",
          "field": "waarde",
          "stack": "normalize",
          "aggregate": "sum",
          "bandPosition": 0.5
        },
        "fill": {
          "field": "antwoord",
          "scale": {
            "range": [
              "#ffffff",
              "#ffffff",
              "#ffffff",
              "#000000",
              "#000000",
              "#000000",
              "#000000",
              "#000000"
            ],
            "domain": [
              "60 minuten",
              "50 minuten",
              "40 minuten",
              "30 minuten",
              "20 minuten",
              "10 minuten",
              "0 minuten",
              "weet niet / geen mening"
            ]
          }
        },
        "text": {"field": "waarde", "format": ","}
      }
    }
  ],
  "encoding": {
    "x": {
      "axis": null,
      "type": "quantitative",
      "field": "waarde",
      "stack": "normalize",
      "aggregate": "sum"
    },
    "y": {
      "axis": {"title": null, "labelAngle": 0},
      "sort": null,
      "type": "nominal",
      "field": "meting"
    },
    "order": {"type": "ordinal", "field": "order"},
    "tooltip": [
      {"field": "antwoord", "title": "antwoord"},
      {"field": "waarde", "title": "aandeel", "format": ","}
    ]
  },
  "config": {
    "axis": {
      "labelFont": "'Avenir Next W01', sans-serif",
      "labelFontSize": 16,
      "domain": false,
      "titleFont": "'Avenir Next W01', sans-serif",
      "titleFontSize": 16,
      "ticks": false,
      "title": null,
      "labelFontWeight": "bold",
      "labelPadding": 12,
      "titleFontWeight": "normal",
      "labelAngle": 0
    },
    "view": {"stroke": null},
    "axisY": {
      "titleX": 0,
      "titleY": 7,
      "titleAlign": "left",
      "titleAngle": 0,
      "titleFontWeight": "bold"
    },
    "title": {
      "font": "'Avenir Next W01', sans-serif",
      "anchor": "start",
      "offset": 32,
      "fontSize": 20,
      "subtitleFontSize": 16
    },
    "legend": {
      "title": null,
      "symbolType": "square",
      "labelFont": "'Avenir Next W01', sans-serif",
      "titleFont": "'Avenir Next W01', sans-serif",
      "labelFontSize": 16,
      "titleFontSize": 16,
      "direction": "horizontal",
      "orient": "bottom",
      "labelLimit": 180
    },
    "locale": {
      "time": {
        "date": "%d-%m-%Y",
        "days": [
          "zondag",
          "maandag",
          "dinsdag",
          "woensdag",
          "donderdag",
          "vrijdag",
          "zaterdag"
        ],
        "time": "%H:%M:%S",
        "months": [
          "januari",
          "februari",
          "maart",
          "april",
          "mei",
          "juni",
          "juli",
          "augustus",
          "september",
          "oktober",
          "november",
          "december"
        ],
        "periods": ["AM", "PM"],
        "dateTime": "%a %e %B %Y %X",
        "shortDays": ["zo", "ma", "di", "wo", "do", "vr", "za"],
        "shortMonths": [
          "jan",
          "feb",
          "mrt",
          "apr",
          "mei",
          "jun",
          "jul",
          "aug",
          "sep",
          "okt",
          "nov",
          "dec"
        ]
      },
      "number": {
        "decimal": ",",
        "currency": ["", " €"],
        "grouping": [3],
        "thousands": "."
      }
    },
    "padding": {"top": 20, "left": 20, "right": 20, "bottom": 20}
  }
}