{
  "$schema": "https://vega.github.io/schema/vega-lite/v5.json",
  "title": {"text": "Gebruik openbaar vervoer", "subtitle": "Bron: O&S"},
  "spacing": 22,
  "data": {
    "values": [
      {"category": "2016", "group": "bus", "value": 10},
      {"category": "2016", "group": "metro", "value": 60},
      {"category": "2016", "group": "tram", "value": 90},
      {"category": "2017", "group": "bus", "value": 70},
      {"category": "2017", "group": "metro", "value": 20},
      {"category": "2017", "group": "tram", "value": 40},
      {"category": "2018", "group": "bus", "value": 60},
      {"category": "2018", "group": "metro", "value": 10},
      {"category": "2018", "group": "tram", "value": 20},
      {"category": "2019", "group": "bus", "value": 90},
      {"category": "2019", "group": "metro", "value": 100},
      {"category": "2019", "group": "tram", "value": 10},
      {"category": "prognose 2025", "group": "bus", "value": 20},
      {"category": "prognose 2025", "group": "metro", "value": 50},
      {"category": "prognose 2025", "group": "tram", "value": 95}
    ]
  },
  "facet": {"column": {"field": "group", "title": null}},
  "spec": {
    "width": 200,
    "height": {"step": 40},
    "encoding": {
      "y": {"field": "category", "type": "nominal"},
      "x": {
        "field": "value",
        "type": "quantitative",
        "scale": {"domain": [0, 100]},
        "axis": null
      },
      "tooltip": [
        {"field": "category", "title": "jaar"},
        {"field": "group", "title": "categorie"},
        {"field": "value", "title": "waarde"}
      ]
    },
    "layer": [
      {
        "mark": {"type": "bar", "height": 36},
        "encoding": {
          "color": {
            "field": "group",
            "scale": {"range": ["#a00078", "#004699", "#009DEC"]},
            "legend": null
          }
        }
      },
      {
        "mark": {
          "type": "text",
          "size": 16,
          "fontWeight": "bold",
          "color": "white",
          "align": "right",
          "dx": -2.5
        },
        "encoding": {"text": {"field": "value", "type": "quantitative"}}
      }
    ]
  },
  "config": {
    "headerColumn": {
      "labelFont": "'Avenir Next W01', sans-serif",
      "titleFont": "'Avenir Next W01', sans-serif",
      "labelFontSize": 16,
      "labelFontWeight": "bold",
      "labelAlign": "left",
      "labelAnchor": "start",
      "titleFontSize": 16
    },
    "headerRow": {
      "labelFont": "'Avenir Next W01', sans-serif",
      "titleFont": "'Avenir Next W01', sans-serif",
      "labelFontSize": 16,
      "labelFontWeight": "bold",
      "labelAlign": "left",
      "labelBaseline": "line-top",
      "labelAnchor": "end",
      "labelOrient": "left",
      "titleFontSize": 16,
      "labelAngle": 0
    }
  }
}