{
    "$schema": "https://vega.github.io/schema/vega-lite/v4.json",
    "title": {
        "text": "Loop van de bevolking, 1946-2019",
        "subtitle": "Bron: O&S"
      },
    "width": "container",
    "height": 300,
    "encoding": {
      "x": {
        "field": "jaar",
        "type": "nominal",
        "axis": {"title": "", "values": [1946, 2019], "labelAngle": 0 }
      }
    },
    "layer": [
      {
        "transform": [
          {"filter": "datum.categorie != 'totaal'"}
        ],
        "mark": "bar",
        "encoding":{
          "y": { 
            "field": "waarde", 
            "type": "quantitative", 
            "axis": {"title": "", "tickCount": 6 } 
          },
          "color": {
            "field": "categorie",
            "type": "ordinal",
            "scale": {
              "domain": ["natuurlijke aanwas", "binnenlands migratiesaldo", "buitenlands migratiesaldo", "totaal"],
              "range": ["#4592c6","#a8cee5","#74b2d7","#EC0000"]
            },
            "legend": {
              "labelExpr": "{'binnenlands migratiesaldo': 'bin. migratiesaldo','buitenlands migratiesaldo': 'buit. migratiesaldo','natuurlijke aanwas': 'natuurlijke aanwas','totaal': 'totaal'}[datum.label]"
            }
          }
        }
      },
      {
        "transform": [
          {"filter": "datum.categorie == 'totaal'"}
        ],
        "mark": {
          "strokeWidth": 4,
          "stroke": "#EC0000",
          "type": "line", 
          "interpolate": "monotone"
        },
        "encoding": {
          "y": {
            "field": "waarde",
            "type": "quantitative"
          }
        }
      },
      {
        "transform": [
          {"pivot": "categorie", "value": "waarde", "groupby": ["jaar"]}
        ],
        "mark": "rule",
        "selection": {
            "hover": {
              "type": "single",
              "fields": ["jaar"],
              "nearest": true,
              "on": "mouseover",
              "empty": "none",
              "clear": "mouseout"
            }
        },
        "encoding": {
          "opacity": {
            "condition": {"value": 0.3, "selection": "hover"},
            "value": 0
          },
          "tooltip": [
            {"field": "jaar", "type": "quantitative"},
            {"field": "natuurlijke aanwas", "type": "quantitative", "format": ","},
            {"field": "binnenlands migratiesaldo", "type": "quantitative", "format": ","},
            {"field": "buitenlands migratiesaldo", "type": "quantitative", "format": ","},
            {"title": "saldo",  "field": "totaal", "format": ","}
          ]
        }
      }
    ],
    "data": {
      "values": [
        {"jaar":1946,"categorie":"natuurlijke aanwas","waarde":15702},
        {"jaar":1947,"categorie":"natuurlijke aanwas","waarde":13715},
        {"jaar":1948,"categorie":"natuurlijke aanwas","waarde":11752},
        {"jaar":1949,"categorie":"natuurlijke aanwas","waarde":9409},
        {"jaar":1950,"categorie":"natuurlijke aanwas","waarde":8925},
        {"jaar":1951,"categorie":"natuurlijke aanwas","waarde":8148},
        {"jaar":1952,"categorie":"natuurlijke aanwas","waarde":8281},
        {"jaar":1953,"categorie":"natuurlijke aanwas","waarde":8157},
        {"jaar":1954,"categorie":"natuurlijke aanwas","waarde":7892},
        {"jaar":1955,"categorie":"natuurlijke aanwas","waarde":7395},
        {"jaar":1956,"categorie":"natuurlijke aanwas","waarde":7477},
        {"jaar":1957,"categorie":"natuurlijke aanwas","waarde":7502},
        {"jaar":1958,"categorie":"natuurlijke aanwas","waarde":7257},
        {"jaar":1959,"categorie":"natuurlijke aanwas","waarde":7323},
        {"jaar":1960,"categorie":"natuurlijke aanwas","waarde":6388},
        {"jaar":1961,"categorie":"natuurlijke aanwas","waarde":6894},
        {"jaar":1962,"categorie":"natuurlijke aanwas","waarde":6529},
        {"jaar":1963,"categorie":"natuurlijke aanwas","waarde":6379},
        {"jaar":1964,"categorie":"natuurlijke aanwas","waarde":6707},
        {"jaar":1965,"categorie":"natuurlijke aanwas","waarde":4809},
        {"jaar":1966,"categorie":"natuurlijke aanwas","waarde":4144},
        {"jaar":1967,"categorie":"natuurlijke aanwas","waarde":3544},
        {"jaar":1968,"categorie":"natuurlijke aanwas","waarde":2759},
        {"jaar":1969,"categorie":"natuurlijke aanwas","waarde":2670},
        {"jaar":1970,"categorie":"natuurlijke aanwas","waarde":1646},
        {"jaar":1971,"categorie":"natuurlijke aanwas","waarde":1029},
        {"jaar":1972,"categorie":"natuurlijke aanwas","waarde":504},
        {"jaar":1973,"categorie":"natuurlijke aanwas","waarde":-398},
        {"jaar":1974,"categorie":"natuurlijke aanwas","waarde":-819},
        {"jaar":1975,"categorie":"natuurlijke aanwas","waarde":-1265},
        {"jaar":1976,"categorie":"natuurlijke aanwas","waarde":-1040},
        {"jaar":1977,"categorie":"natuurlijke aanwas","waarde":-330},
        {"jaar":1978,"categorie":"natuurlijke aanwas","waarde":-688},
        {"jaar":1979,"categorie":"natuurlijke aanwas","waarde":-490},
        {"jaar":1980,"categorie":"natuurlijke aanwas","waarde":-126},
        {"jaar":1981,"categorie":"natuurlijke aanwas","waarde":-104},
        {"jaar":1982,"categorie":"natuurlijke aanwas","waarde":-341},
        {"jaar":1983,"categorie":"natuurlijke aanwas","waarde":-261},
        {"jaar":1984,"categorie":"natuurlijke aanwas","waarde":80},
        {"jaar":1985,"categorie":"natuurlijke aanwas","waarde":295},
        {"jaar":1986,"categorie":"natuurlijke aanwas","waarde":522},
        {"jaar":1987,"categorie":"natuurlijke aanwas","waarde":1197},
        {"jaar":1988,"categorie":"natuurlijke aanwas","waarde":1126},
        {"jaar":1989,"categorie":"natuurlijke aanwas","waarde":1157},
        {"jaar":1990,"categorie":"natuurlijke aanwas","waarde":1730},
        {"jaar":1991,"categorie":"natuurlijke aanwas","waarde":1859},
        {"jaar":1992,"categorie":"natuurlijke aanwas","waarde":2139},
        {"jaar":1993,"categorie":"natuurlijke aanwas","waarde":1656},
        {"jaar":1994,"categorie":"natuurlijke aanwas","waarde":2035},
        {"jaar":1995,"categorie":"natuurlijke aanwas","waarde":1767},
        {"jaar":1996,"categorie":"natuurlijke aanwas","waarde":2050},
        {"jaar":1997,"categorie":"natuurlijke aanwas","waarde":2785},
        {"jaar":1998,"categorie":"natuurlijke aanwas","waarde":3406},
        {"jaar":1999,"categorie":"natuurlijke aanwas","waarde":3455},
        {"jaar":2000,"categorie":"natuurlijke aanwas","waarde":3974},
        {"jaar":2001,"categorie":"natuurlijke aanwas","waarde":4076},
        {"jaar":2002,"categorie":"natuurlijke aanwas","waarde":3881},
        {"jaar":2003,"categorie":"natuurlijke aanwas","waarde":4048},
        {"jaar":2004,"categorie":"natuurlijke aanwas","waarde":4696},
        {"jaar":2005,"categorie":"natuurlijke aanwas","waarde":4612},
        {"jaar":2006,"categorie":"natuurlijke aanwas","waarde":4444},
        {"jaar":2007,"categorie":"natuurlijke aanwas","waarde":4833},
        {"jaar":2008,"categorie":"natuurlijke aanwas","waarde":4893},
        {"jaar":2009,"categorie":"natuurlijke aanwas","waarde":5722},
        {"jaar":2010,"categorie":"natuurlijke aanwas","waarde":6000},
        {"jaar":2011,"categorie":"natuurlijke aanwas","waarde":5779},
        {"jaar":2012,"categorie":"natuurlijke aanwas","waarde":5415},
        {"jaar":2013,"categorie":"natuurlijke aanwas","waarde":5424},
        {"jaar":2014,"categorie":"natuurlijke aanwas","waarde":5870},
        {"jaar":2015,"categorie":"natuurlijke aanwas","waarde":5591},
        {"jaar":2016,"categorie":"natuurlijke aanwas","waarde":5389},
        {"jaar":2017,"categorie":"natuurlijke aanwas","waarde":5605},
        {"jaar":2018,"categorie":"natuurlijke aanwas","waarde":5198},
        {"jaar":2019,"categorie":"natuurlijke aanwas","waarde":5241},
        {"jaar":1946,"categorie":"binnenlands migratiesaldo","waarde":4594},
        {"jaar":1947,"categorie":"binnenlands migratiesaldo","waarde":4728},
        {"jaar":1948,"categorie":"binnenlands migratiesaldo","waarde":2141},
        {"jaar":1949,"categorie":"binnenlands migratiesaldo","waarde":1923},
        {"jaar":1950,"categorie":"binnenlands migratiesaldo","waarde":-422},
        {"jaar":1951,"categorie":"binnenlands migratiesaldo","waarde":-608},
        {"jaar":1952,"categorie":"binnenlands migratiesaldo","waarde":-982},
        {"jaar":1953,"categorie":"binnenlands migratiesaldo","waarde":-1884},
        {"jaar":1954,"categorie":"binnenlands migratiesaldo","waarde":-977},
        {"jaar":1955,"categorie":"binnenlands migratiesaldo","waarde":-851},
        {"jaar":1956,"categorie":"binnenlands migratiesaldo","waarde":-1542},
        {"jaar":1957,"categorie":"binnenlands migratiesaldo","waarde":-3972},
        {"jaar":1958,"categorie":"binnenlands migratiesaldo","waarde":-5818},
        {"jaar":1959,"categorie":"binnenlands migratiesaldo","waarde":-7461},
        {"jaar":1960,"categorie":"binnenlands migratiesaldo","waarde":-7789},
        {"jaar":1961,"categorie":"binnenlands migratiesaldo","waarde":-8117},
        {"jaar":1962,"categorie":"binnenlands migratiesaldo","waarde":-6790},
        {"jaar":1963,"categorie":"binnenlands migratiesaldo","waarde":-5506},
        {"jaar":1964,"categorie":"binnenlands migratiesaldo","waarde":-9025},
        {"jaar":1965,"categorie":"binnenlands migratiesaldo","waarde":-11449},
        {"jaar":1966,"categorie":"binnenlands migratiesaldo","waarde":-10901},
        {"jaar":1967,"categorie":"binnenlands migratiesaldo","waarde":-12376},
        {"jaar":1968,"categorie":"binnenlands migratiesaldo","waarde":-15433},
        {"jaar":1969,"categorie":"binnenlands migratiesaldo","waarde":-19647},
        {"jaar":1970,"categorie":"binnenlands migratiesaldo","waarde":-16427},
        {"jaar":1971,"categorie":"binnenlands migratiesaldo","waarde":-19213},
        {"jaar":1972,"categorie":"binnenlands migratiesaldo","waarde":-21076},
        {"jaar":1973,"categorie":"binnenlands migratiesaldo","waarde":-24778},
        {"jaar":1974,"categorie":"binnenlands migratiesaldo","waarde":-18364},
        {"jaar":1975,"categorie":"binnenlands migratiesaldo","waarde":-18344},
        {"jaar":1976,"categorie":"binnenlands migratiesaldo","waarde":-16227},
        {"jaar":1977,"categorie":"binnenlands migratiesaldo","waarde":-13622},
        {"jaar":1978,"categorie":"binnenlands migratiesaldo","waarde":-15163},
        {"jaar":1979,"categorie":"binnenlands migratiesaldo","waarde":-9605},
        {"jaar":1980,"categorie":"binnenlands migratiesaldo","waarde":-13592},
        {"jaar":1981,"categorie":"binnenlands migratiesaldo","waarde":-14471},
        {"jaar":1982,"categorie":"binnenlands migratiesaldo","waarde":-13061},
        {"jaar":1983,"categorie":"binnenlands migratiesaldo","waarde":-11395},
        {"jaar":1984,"categorie":"binnenlands migratiesaldo","waarde":-3098},
        {"jaar":1985,"categorie":"binnenlands migratiesaldo","waarde":-778},
        {"jaar":1986,"categorie":"binnenlands migratiesaldo","waarde":-665},
        {"jaar":1987,"categorie":"binnenlands migratiesaldo","waarde":-1559},
        {"jaar":1988,"categorie":"binnenlands migratiesaldo","waarde":-3443},
        {"jaar":1989,"categorie":"binnenlands migratiesaldo","waarde":-5532},
        {"jaar":1990,"categorie":"binnenlands migratiesaldo","waarde":-4749},
        {"jaar":1991,"categorie":"binnenlands migratiesaldo","waarde":-3064},
        {"jaar":1992,"categorie":"binnenlands migratiesaldo","waarde":-3692},
        {"jaar":1993,"categorie":"binnenlands migratiesaldo","waarde":-4280},
        {"jaar":1994,"categorie":"binnenlands migratiesaldo","waarde":-1585},
        {"jaar":1995,"categorie":"binnenlands migratiesaldo","waarde":-2449},
        {"jaar":1996,"categorie":"binnenlands migratiesaldo","waarde":124},
        {"jaar":1997,"categorie":"binnenlands migratiesaldo","waarde":-1195},
        {"jaar":1998,"categorie":"binnenlands migratiesaldo","waarde":806},
        {"jaar":1999,"categorie":"binnenlands migratiesaldo","waarde":-1330},
        {"jaar":2000,"categorie":"binnenlands migratiesaldo","waarde":-5386},
        {"jaar":2001,"categorie":"binnenlands migratiesaldo","waarde":-7629},
        {"jaar":2002,"categorie":"binnenlands migratiesaldo","waarde":-5951},
        {"jaar":2003,"categorie":"binnenlands migratiesaldo","waarde":-2858},
        {"jaar":2004,"categorie":"binnenlands migratiesaldo","waarde":-1531},
        {"jaar":2005,"categorie":"binnenlands migratiesaldo","waarde":-445},
        {"jaar":2006,"categorie":"binnenlands migratiesaldo","waarde":1783},
        {"jaar":2007,"categorie":"binnenlands migratiesaldo","waarde":1548},
        {"jaar":2008,"categorie":"binnenlands migratiesaldo","waarde":2051},
        {"jaar":2009,"categorie":"binnenlands migratiesaldo","waarde":1904},
        {"jaar":2010,"categorie":"binnenlands migratiesaldo","waarde":3583},
        {"jaar":2011,"categorie":"binnenlands migratiesaldo","waarde":2169},
        {"jaar":2012,"categorie":"binnenlands migratiesaldo","waarde":3558},
        {"jaar":2013,"categorie":"binnenlands migratiesaldo","waarde":4550},
        {"jaar":2014,"categorie":"binnenlands migratiesaldo","waarde":511},
        {"jaar":2015,"categorie":"binnenlands migratiesaldo","waarde":-1403},
        {"jaar":2016,"categorie":"binnenlands migratiesaldo","waarde":-4120},
        {"jaar":2017,"categorie":"binnenlands migratiesaldo","waarde":-9017},
        {"jaar":2018,"categorie":"binnenlands migratiesaldo","waarde":-12418},
        {"jaar":2019,"categorie":"binnenlands migratiesaldo","waarde":-14397},
        {"jaar":1946,"categorie":"buitenlands migratiesaldo","waarde":7196},
        {"jaar":1947,"categorie":"buitenlands migratiesaldo","waarde":-2833},
        {"jaar":1948,"categorie":"buitenlands migratiesaldo","waarde":-1210},
        {"jaar":1949,"categorie":"buitenlands migratiesaldo","waarde":-2158},
        {"jaar":1950,"categorie":"buitenlands migratiesaldo","waarde":929},
        {"jaar":1951,"categorie":"buitenlands migratiesaldo","waarde":-2129},
        {"jaar":1952,"categorie":"buitenlands migratiesaldo","waarde":-3007},
        {"jaar":1953,"categorie":"buitenlands migratiesaldo","waarde":-2540},
        {"jaar":1954,"categorie":"buitenlands migratiesaldo","waarde":-1815},
        {"jaar":1955,"categorie":"buitenlands migratiesaldo","waarde":-1857},
        {"jaar":1956,"categorie":"buitenlands migratiesaldo","waarde":-3326},
        {"jaar":1957,"categorie":"buitenlands migratiesaldo","waarde":-3141},
        {"jaar":1958,"categorie":"buitenlands migratiesaldo","waarde":-588},
        {"jaar":1959,"categorie":"buitenlands migratiesaldo","waarde":-2688},
        {"jaar":1960,"categorie":"buitenlands migratiesaldo","waarde":-1859},
        {"jaar":1961,"categorie":"buitenlands migratiesaldo","waarde":584},
        {"jaar":1962,"categorie":"buitenlands migratiesaldo","waarde":1388},
        {"jaar":1963,"categorie":"buitenlands migratiesaldo","waarde":742},
        {"jaar":1964,"categorie":"buitenlands migratiesaldo","waarde":163},
        {"jaar":1965,"categorie":"buitenlands migratiesaldo","waarde":2838},
        {"jaar":1966,"categorie":"buitenlands migratiesaldo","waarde":3430},
        {"jaar":1967,"categorie":"buitenlands migratiesaldo","waarde":46},
        {"jaar":1968,"categorie":"buitenlands migratiesaldo","waarde":860},
        {"jaar":1969,"categorie":"buitenlands migratiesaldo","waarde":2619},
        {"jaar":1970,"categorie":"buitenlands migratiesaldo","waarde":3724},
        {"jaar":1971,"categorie":"buitenlands migratiesaldo","waarde":5520},
        {"jaar":1972,"categorie":"buitenlands migratiesaldo","waarde":4599},
        {"jaar":1973,"categorie":"buitenlands migratiesaldo","waarde":4242},
        {"jaar":1974,"categorie":"buitenlands migratiesaldo","waarde":6337},
        {"jaar":1975,"categorie":"buitenlands migratiesaldo","waarde":12807},
        {"jaar":1976,"categorie":"buitenlands migratiesaldo","waarde":5738},
        {"jaar":1977,"categorie":"buitenlands migratiesaldo","waarde":4247},
        {"jaar":1978,"categorie":"buitenlands migratiesaldo","waarde":5819},
        {"jaar":1979,"categorie":"buitenlands migratiesaldo","waarde":8438},
        {"jaar":1980,"categorie":"buitenlands migratiesaldo","waarde":9079},
        {"jaar":1981,"categorie":"buitenlands migratiesaldo","waarde":3030},
        {"jaar":1982,"categorie":"buitenlands migratiesaldo","waarde":-15},
        {"jaar":1983,"categorie":"buitenlands migratiesaldo","waarde":678},
        {"jaar":1984,"categorie":"buitenlands migratiesaldo","waarde":2113},
        {"jaar":1985,"categorie":"buitenlands migratiesaldo","waarde":4049},
        {"jaar":1986,"categorie":"buitenlands migratiesaldo","waarde":3724},
        {"jaar":1987,"categorie":"buitenlands migratiesaldo","waarde":9393},
        {"jaar":1988,"categorie":"buitenlands migratiesaldo","waarde":5449},
        {"jaar":1989,"categorie":"buitenlands migratiesaldo","waarde":4651},
        {"jaar":1990,"categorie":"buitenlands migratiesaldo","waarde":10515},
        {"jaar":1991,"categorie":"buitenlands migratiesaldo","waarde":12186},
        {"jaar":1992,"categorie":"buitenlands migratiesaldo","waarde":7921},
        {"jaar":1993,"categorie":"buitenlands migratiesaldo","waarde":6663},
        {"jaar":1994,"categorie":"buitenlands migratiesaldo","waarde":-1767},
        {"jaar":1995,"categorie":"buitenlands migratiesaldo","waarde":-3360},
        {"jaar":1996,"categorie":"buitenlands migratiesaldo","waarde":-5296},
        {"jaar":1997,"categorie":"buitenlands migratiesaldo","waarde":1111},
        {"jaar":1998,"categorie":"buitenlands migratiesaldo","waarde":4604},
        {"jaar":1999,"categorie":"buitenlands migratiesaldo","waarde":1952},
        {"jaar":2000,"categorie":"buitenlands migratiesaldo","waarde":4576},
        {"jaar":2001,"categorie":"buitenlands migratiesaldo","waarde":4316},
        {"jaar":2002,"categorie":"buitenlands migratiesaldo","waarde":2991},
        {"jaar":2003,"categorie":"buitenlands migratiesaldo","waarde":1189},
        {"jaar":2004,"categorie":"buitenlands migratiesaldo","waarde":877},
        {"jaar":2005,"categorie":"buitenlands migratiesaldo","waarde":-3850},
        {"jaar":2006,"categorie":"buitenlands migratiesaldo","waarde":-6042},
        {"jaar":2007,"categorie":"buitenlands migratiesaldo","waarde":-2206},
        {"jaar":2008,"categorie":"buitenlands migratiesaldo","waarde":1161},
        {"jaar":2009,"categorie":"buitenlands migratiesaldo","waarde":3712},
        {"jaar":2010,"categorie":"buitenlands migratiesaldo","waarde":3543},
        {"jaar":2011,"categorie":"buitenlands migratiesaldo","waarde":1377},
        {"jaar":2012,"categorie":"buitenlands migratiesaldo","waarde":618},
        {"jaar":2013,"categorie":"buitenlands migratiesaldo","waarde":1837},
        {"jaar":2014,"categorie":"buitenlands migratiesaldo","waarde":4742},
        {"jaar":2015,"categorie":"buitenlands migratiesaldo","waarde":8253},
        {"jaar":2016,"categorie":"buitenlands migratiesaldo","waarde":8895},
        {"jaar":2017,"categorie":"buitenlands migratiesaldo","waarde":12741},
        {"jaar":2018,"categorie":"buitenlands migratiesaldo","waarde":16015},
        {"jaar":2019,"categorie":"buitenlands migratiesaldo","waarde":18876},
        {"jaar":1946,"categorie":"totaal","waarde":27452},
        {"jaar":1947,"categorie":"totaal","waarde":15650},
        {"jaar":1948,"categorie":"totaal","waarde":12692},
        {"jaar":1949,"categorie":"totaal","waarde":9174},
        {"jaar":1950,"categorie":"totaal","waarde":9432},
        {"jaar":1951,"categorie":"totaal","waarde":5411},
        {"jaar":1952,"categorie":"totaal","waarde":4292},
        {"jaar":1953,"categorie":"totaal","waarde":3733},
        {"jaar":1954,"categorie":"totaal","waarde":5100},
        {"jaar":1955,"categorie":"totaal","waarde":4777},
        {"jaar":1956,"categorie":"totaal","waarde":2609},
        {"jaar":1957,"categorie":"totaal","waarde":389},
        {"jaar":1958,"categorie":"totaal","waarde":851},
        {"jaar":1959,"categorie":"totaal","waarde":-2826},
        {"jaar":1960,"categorie":"totaal","waarde":-3260},
        {"jaar":1961,"categorie":"totaal","waarde":-639},
        {"jaar":1962,"categorie":"totaal","waarde":1127},
        {"jaar":1963,"categorie":"totaal","waarde":1615},
        {"jaar":1964,"categorie":"totaal","waarde":-2155},
        {"jaar":1965,"categorie":"totaal","waarde":-3802},
        {"jaar":1966,"categorie":"totaal","waarde":3933},
        {"jaar":1967,"categorie":"totaal","waarde":-8786},
        {"jaar":1968,"categorie":"totaal","waarde":-11814},
        {"jaar":1969,"categorie":"totaal","waarde":-14358},
        {"jaar":1970,"categorie":"totaal","waarde":-11057},
        {"jaar":1971,"categorie":"totaal","waarde":-12664},
        {"jaar":1972,"categorie":"totaal","waarde":-15973},
        {"jaar":1973,"categorie":"totaal","waarde":-21096},
        {"jaar":1974,"categorie":"totaal","waarde":-14024},
        {"jaar":1975,"categorie":"totaal","waarde":-5595},
        {"jaar":1976,"categorie":"totaal","waarde":-12613},
        {"jaar":1977,"categorie":"totaal","waarde":-9703},
        {"jaar":1978,"categorie":"totaal","waarde":-10089},
        {"jaar":1979,"categorie":"totaal","waarde":-1682},
        {"jaar":1980,"categorie":"totaal","waarde":-4602},
        {"jaar":1981,"categorie":"totaal","waarde":-11504},
        {"jaar":1982,"categorie":"totaal","waarde":-13362},
        {"jaar":1983,"categorie":"totaal","waarde":-10975},
        {"jaar":1984,"categorie":"totaal","waarde":-954},
        {"jaar":1985,"categorie":"totaal","waarde":3793},
        {"jaar":1986,"categorie":"totaal","waarde":3416},
        {"jaar":1987,"categorie":"totaal","waarde":9058},
        {"jaar":1988,"categorie":"totaal","waarde":3153},
        {"jaar":1989,"categorie":"totaal","waarde":231},
        {"jaar":1990,"categorie":"totaal","waarde":7510},
        {"jaar":1991,"categorie":"totaal","waarde":10762},
        {"jaar":1992,"categorie":"totaal","waarde":6430},
        {"jaar":1993,"categorie":"totaal","waarde":4272},
        {"jaar":1994,"categorie":"totaal","waarde":-1845},
        {"jaar":1995,"categorie":"totaal","waarde":-4259},
        {"jaar":1996,"categorie":"totaal","waarde":-3028},
        {"jaar":1997,"categorie":"totaal","waarde":3112},
        {"jaar":1998,"categorie":"totaal","waarde":8920},
        {"jaar":1999,"categorie":"totaal","waarde":4194},
        {"jaar":2000,"categorie":"totaal","waarde":2761},
        {"jaar":2001,"categorie":"totaal","waarde":1278},
        {"jaar":2002,"categorie":"totaal","waarde":717},
        {"jaar":2003,"categorie":"totaal","waarde":2379},
        {"jaar":2004,"categorie":"totaal","waarde":4188},
        {"jaar":2005,"categorie":"totaal","waarde":76},
        {"jaar":2006,"categorie":"totaal","waarde":77},
        {"jaar":2007,"categorie":"totaal","waarde":4186},
        {"jaar":2008,"categorie":"totaal","waarde":9057},
        {"jaar":2009,"categorie":"totaal","waarde":11426},
        {"jaar":2010,"categorie":"totaal","waarde":12786},
        {"jaar":2011,"categorie":"totaal","waarde":9485},
        {"jaar":2012,"categorie":"totaal","waarde":9398},
        {"jaar":2013,"categorie":"totaal","waarde":11743},
        {"jaar":2014,"categorie":"totaal","waarde":11087},
        {"jaar":2015,"categorie":"totaal","waarde":12441},
        {"jaar":2016,"categorie":"totaal","waarde":10239},
        {"jaar":2017,"categorie":"totaal","waarde":9364},
        {"jaar":2018,"categorie":"totaal","waarde":8671},
        {"jaar":2019,"categorie":"totaal","waarde":9393}
      ]
    }
  }
  