{
  "$schema": "https://vega.github.io/schema/vega-lite/v5.json",
  "width": "container",
  "height": 300,
  "data": {
    "name": "table",
    "values": [
      {"jaar": 2002, "waarde": 3935, "categorie": "natuurlijke aanwas"},
      {"jaar": 2003, "waarde": 4083, "categorie": "natuurlijke aanwas"},
      {"jaar": 2004, "waarde": 4812, "categorie": "natuurlijke aanwas"},
      {"jaar": 2005, "waarde": 4710, "categorie": "natuurlijke aanwas"},
      {"jaar": 2006, "waarde": 4533, "categorie": "natuurlijke aanwas"},
      {"jaar": 2007, "waarde": 4918, "categorie": "natuurlijke aanwas"},
      {"jaar": 2008, "waarde": 4982, "categorie": "natuurlijke aanwas"},
      {"jaar": 2009, "waarde": 5801, "categorie": "natuurlijke aanwas"},
      {"jaar": 2010, "waarde": 6053, "categorie": "natuurlijke aanwas"},
      {"jaar": 2011, "waarde": 5877, "categorie": "natuurlijke aanwas"},
      {"jaar": 2012, "waarde": 5457, "categorie": "natuurlijke aanwas"},
      {"jaar": 2013, "waarde": 5651, "categorie": "natuurlijke aanwas"},
      {"jaar": 2014, "waarde": 5972, "categorie": "natuurlijke aanwas"},
      {"jaar": 2015, "waarde": 5650, "categorie": "natuurlijke aanwas"},
      {"jaar": 2016, "waarde": 5506, "categorie": "natuurlijke aanwas"},
      {"jaar": 2017, "waarde": 5688, "categorie": "natuurlijke aanwas"},
      {"jaar": 2018, "waarde": 5287, "categorie": "natuurlijke aanwas"},
      {"jaar": 2019, "waarde": 5340, "categorie": "natuurlijke aanwas"},
      {"jaar": 2020, "waarde": 4582, "categorie": "natuurlijke aanwas"},
      {"jaar": 2021, "waarde": 4865, "categorie": "natuurlijke aanwas"},
      {"jaar": 2002, "waarde": -7969, "categorie": "binnenlands migratiesaldo"},
      {"jaar": 2003, "waarde": -4987, "categorie": "binnenlands migratiesaldo"},
      {"jaar": 2004, "waarde": -4043, "categorie": "binnenlands migratiesaldo"},
      {"jaar": 2005, "waarde": -3246, "categorie": "binnenlands migratiesaldo"},
      {"jaar": 2006, "waarde": -1216, "categorie": "binnenlands migratiesaldo"},
      {"jaar": 2007, "waarde": -1245, "categorie": "binnenlands migratiesaldo"},
      {"jaar": 2008, "waarde": 845, "categorie": "binnenlands migratiesaldo"},
      {"jaar": 2009, "waarde": 1756, "categorie": "binnenlands migratiesaldo"},
      {"jaar": 2010, "waarde": 3469, "categorie": "binnenlands migratiesaldo"},
      {"jaar": 2011, "waarde": 1857, "categorie": "binnenlands migratiesaldo"},
      {"jaar": 2012, "waarde": 3517, "categorie": "binnenlands migratiesaldo"},
      {"jaar": 2013, "waarde": 4527, "categorie": "binnenlands migratiesaldo"},
      {"jaar": 2014, "waarde": 504, "categorie": "binnenlands migratiesaldo"},
      {"jaar": 2015, "waarde": -1292, "categorie": "binnenlands migratiesaldo"},
      {"jaar": 2016, "waarde": -4100, "categorie": "binnenlands migratiesaldo"},
      {"jaar": 2017, "waarde": -8872, "categorie": "binnenlands migratiesaldo"},
      {"jaar": 2018, "waarde": -11839, "categorie": "binnenlands migratiesaldo"},
      {"jaar": 2019, "waarde": -13766, "categorie": "binnenlands migratiesaldo"},
      {"jaar": 2020, "waarde": -13804, "categorie": "binnenlands migratiesaldo"},
      {"jaar": 2021, "waarde": -13248, "categorie": "binnenlands migratiesaldo"},
      {"jaar": 2002, "waarde": 4089, "categorie": "buitenlands migratiesaldo"},
      {"jaar": 2003, "waarde": 2561, "categorie": "buitenlands migratiesaldo"},
      {"jaar": 2004, "waarde": 1850, "categorie": "buitenlands migratiesaldo"},
      {"jaar": 2005, "waarde": -1999, "categorie": "buitenlands migratiesaldo"},
      {"jaar": 2006, "waarde": -4284, "categorie": "buitenlands migratiesaldo"},
      {"jaar": 2007, "waarde": -94, "categorie": "buitenlands migratiesaldo"},
      {"jaar": 2008, "waarde": 1971, "categorie": "buitenlands migratiesaldo"},
      {"jaar": 2009, "waarde": 3536, "categorie": "buitenlands migratiesaldo"},
      {"jaar": 2010, "waarde": 2896, "categorie": "buitenlands migratiesaldo"},
      {"jaar": 2011, "waarde": 2301, "categorie": "buitenlands migratiesaldo"},
      {"jaar": 2012, "waarde": 169, "categorie": "buitenlands migratiesaldo"},
      {"jaar": 2013, "waarde": 1138, "categorie": "buitenlands migratiesaldo"},
      {"jaar": 2014, "waarde": 4289, "categorie": "buitenlands migratiesaldo"},
      {"jaar": 2015, "waarde": 7493, "categorie": "buitenlands migratiesaldo"},
      {"jaar": 2016, "waarde": 9937, "categorie": "buitenlands migratiesaldo"},
      {"jaar": 2017, "waarde": 12302, "categorie": "buitenlands migratiesaldo"},
      {"jaar": 2018, "waarde": 15517, "categorie": "buitenlands migratiesaldo"},
      {"jaar": 2019, "waarde": 18252, "categorie": "buitenlands migratiesaldo"},
      {"jaar": 2020, "waarde": 9857, "categorie": "buitenlands migratiesaldo"},
      {"jaar": 2021, "waarde": 17756, "categorie": "buitenlands migratiesaldo"},
      {"jaar": 2002, "waarde": 981, "categorie": "overige correcties"},
      {"jaar": 2003, "waarde": 885, "categorie": "overige correcties"},
      {"jaar": 2004, "waarde": 1060, "categorie": "overige correcties"},
      {"jaar": 2005, "waarde": 822, "categorie": "overige correcties"},
      {"jaar": 2006, "waarde": 772, "categorie": "overige correcties"},
      {"jaar": 2007, "waarde": 630, "categorie": "overige correcties"},
      {"jaar": 2008, "waarde": 714, "categorie": "overige correcties"},
      {"jaar": 2009, "waarde": 759, "categorie": "overige correcties"},
      {"jaar": 2010, "waarde": -67, "categorie": "overige correcties"},
      {"jaar": 2011, "waarde": 267, "categorie": "overige correcties"},
      {"jaar": 2012, "waarde": 25, "categorie": "overige correcties"},
      {"jaar": 2013, "waarde": 173, "categorie": "overige correcties"},
      {"jaar": 2014, "waarde": 50, "categorie": "overige correcties"},
      {"jaar": 2015, "waarde": 21, "categorie": "overige correcties"},
      {"jaar": 2016, "waarde": -20, "categorie": "overige correcties"},
      {"jaar": 2017, "waarde": -18, "categorie": "overige correcties"},
      {"jaar": 2018, "waarde": -47, "categorie": "overige correcties"},
      {"jaar": 2019, "waarde": -34, "categorie": "overige correcties"},
      {"jaar": 2020, "waarde": -54, "categorie": "overige correcties"},
      {"jaar": 2021, "waarde": -78, "categorie": "overige correcties"}
    ]
  },
  "encoding": {
    "x": {
      "axis": {
        "domain": false
      }
    }
  },
  "layer": [
    {
      "mark": {
        "type": "bar",
        "width": {"band": 1}
      },
      "encoding": {
        "y": {
          "axis": {
            "gridDash": {
              "value": [0, 0],
              "condition": {
                "test": {"equal": 25000, "field": "value"},
                "value": [1000, 60]
              }
            },
            "labelExpr": "replace(datum.label, '.000', '')",
            "tickCount": 7,
            "gridDashOffset": 1000
          },
          "type": "quantitative",
          "field": "waarde",
          "title": "x 1.000"
        },
        "x": {"axis": {"values": [2002, 2021]}, "type": "nominal", "field": "jaar"},
        "color": {
          "sort": null,
          "type": "nominal",
          "field": "categorie",
          "scale": {"range": ["#009de6", "#53b361", "#bed200", "#e6e6e6"]},
          "legend": {
            "labelExpr": "{'binnenlands migratiesaldo': 'bin. migratiesaldo','buitenlands migratiesaldo': 'buit. migratiesaldo','natuurlijke aanwas': 'natuurlijke aanwas','overige correcties': 'overige correcties'}[datum.label]"
          }
        },
        "tooltip": [{"field": "waarde", "format": ","}, {"field": "jaar"}]
      }
    },
    {
      "mark": {
        "type": "rule",
        "color": "black"
      },
      "encoding": {
        "y": { "datum" : 0 }
      }
    },
    {
      "mark": {"type": "line"},
      "encoding": {
        "x": {"type": "ordinal", "field": "jaar"},
        "y": {"type": "quantitative", "field": "waarde", "aggregate": "sum"},
        "color": {
          "type": "nominal",
          "field": "totaal",
          "scale": {"range": ["#004699"]},
          "legend": {"labelExpr": "{'undefined':'totaal'}[datum.label]"}
        }
      }
    },
    {
      "mark": {"type": "rule", "strokeDash": [2, 2]},
      "params": [
        {
          "name": "hover",
          "select": {
            "on": "mouseover",
            "type": "point",
            "clear": "mouseout",
            "fields": ["jaar"],
            "nearest": true
          }
        }
      ],
      "encoding": {
        "x": {"axis": {"values": [2002, 2021]}, "type": "nominal", "field": "jaar"},
        "opacity": {
          "value": 0,
          "condition": {"empty": false, "param": "hover", "value": 0.25}
        },
        "tooltip": [
          {"type": "quantitative", "field": "jaar", "title": "jaar"},
          {
            "type": "quantitative",
            "field": "natuurlijke aanwas",
            "format": ","
          },
          {
            "type": "quantitative",
            "field": "binnenlands migratiesaldo",
            "format": ","
          },
          {
            "type": "quantitative",
            "field": "buitenlands migratiesaldo",
            "format": ","
          },
          {
            "type": "quantitative",
            "field": "overige correcties",
            "format": ","
          },
          {"field": "totaal", "title": "saldo", "format": ","}
        ]
      },
      "transform": [
        {"pivot": "categorie", "value": "waarde", "groupby": ["jaar"]},
        {
          "as": "totaal",
          "calculate": "datum['natuurlijke aanwas']+datum['binnenlands migratiesaldo']+datum['buitenlands migratiesaldo']+datum['overige correcties']"
        }
      ]
    }
  ],
  "resolve": {"scale": {"color": "independent"}},
  "transform": [
    {"joinaggregate": [{"as": "TotalWaarde", "op": "sum", "field": "waarde"}]}
  ]
}