{
    "$schema": "https://vega.github.io/schema/vega-lite/v5.json",
    "width": "container",
    "autosize": {"resize": true, "type": "fit", "contains": "padding"},
    "height": 400,
    "data": {
      "name": "table",
      "url": "https://cms.onderzoek-en-statistiek.nl/uploads/2025_advies_cohort_69399566c4.tsv"
  
    },
    "params": [
      {
        "bind": {
          "input": "select",
          "options": ["Amsterdam", "Rotterdam", "Utrecht", "Den Haag"]
        },
        "name": "Gemeente",
        "value": "Amsterdam"
      }
    ],
    "transform": [
      {"filter": "datum.gemeente === Gemeente"},
      {"calculate": "datetime(datum._jaar, 0)", "as": "_year"},
      {
        "calculate": "indexof(['vwo','havo/vwo','havo','vmbo t/havo','vmbo t','vmbo k','vmbo b/k','vmbo b','onbekend'], datum.advies)",
        "as": "_order"
      },
      {
        "stack": "_fractie",
        "offset": "normalize",
        "as": ["_v1", "_v2"],
        "groupby": ["_year"],
        "sort": [{"field": "_order", "order": "ascending"}]
      }
    ],
    "layer": [
      {
        "mark": {"type": "bar", "width": {"band": 1}},
        "encoding": {
          "y": {
            "field": "_v1",
            "type": "quantitative",
            "axis": {"tickCount": 5, "format": ".0%"}
          },
          "y2": {"field": "_v2"},
          "x": {
            "axis": {
              "labelOverlap": true,
              "labelSeparation": 16,
              "grid": false,
              "labelExpr": "year(datum.value) + '/\\'' + substring(year(datum.value)+1,2)"
            },
            "field": "_year"
          },
          "color": {
            "field": "advies",
            "scale": {
              "domain": [
                "vmbo b",
                "vmbo b/k",
                "vmbo k",
                "vmbo t",
                "vmbo t/havo",
                "havo",
                "havo/vwo",
                "vwo"
              ],
              "range": [
                "#efd2e3",
                "#dea6c7",
                "#cb7aac",
                "#b64c92",
                "#a00078",
                "#004699",
                "#009dec",
                "#6cbd74"
              ]
            }
          }
        }
      },
      {
        "transform": [
          {
            "pivot": "advies",
            "groupby": ["schooljaar groep 8", "gemeente", "_year"],
            "value": "_fractie"
          }
        ],
        "mark": {"type": "rule", "opacity": 0},
        "params": [
          {
            "name": "hover",
            "select": {
              "on": "mouseover",
              "type": "point",
              "clear": "mouseout",
              "fields": ["_year"],
              "nearest": true
            }
          }
        ],
        "encoding": {
          "x": {"field": "_year"},
          "tooltip": [
            {"field": "gemeente"},
            {"field": "schooljaar groep 8"},
            {"field": "vmbo b", "format": ".1%"},
            {"field": "vmbo b/k", "format": ".1%"},
            {"field": "vmbo k", "format": ".1%"},
            {"field": "vmbo t", "format": ".1%"},
            {"field": "vmbo t/havo", "format": ".1%"},
            {"field": "havo", "format": ".1%"},
            {"field": "havo/vwo", "format": ".1%"},
            {"field": "vwo", "format": ".1%"}
          ]
        }
      }
    ]
  }