{
    "$schema": "https://vega.github.io/schema/vega/v5.json",
    "width": 900,
    "height": 400,
    "padding": {"left": 5, "top": 40, "right": 5, "bottom": 5},
    "autosize": "none",
    "signals": [
      {"name": "layout", "value": "squarify"},
      {"name": "aspectRatio", "value": 1.6}
    ],
    "data": [
      {
        "name": "tree",
        "values": [
          {
            "id": 1,
            "name": "",
            "parent": null,
            "size": null,
            "color": "#fff",
            "x0": 0,
            "y0": 0,
            "x1": 960,
            "y1": 500,
            "depth": 0,
            "children": 2
          },
          {
            "id": 2,
            "name": "publiek",
            "parent": 1,
            "size": null,
            "color": "#fff",
            "x0": 4,
            "y0": 4,
            "x1": 764,
            "y1": 496,
            "depth": 1,
            "children": 2
          },
          {
            "id": 3,
            "name": "privaat",
            "parent": 1,
            "size": null,
            "color": "#fff",
            "x0": 764,
            "y0": 4,
            "x1": 956,
            "y1": 496,
            "depth": 1,
            "children": 2
          },
          {
            "id": 5,
            "name": "publiek groen",
            "parent": 2,
            "size": null,
            "color": "#fff",
            "x0": 441,
            "y0": 8,
            "x1": 760,
            "y1": 492,
            "depth": 2,
            "children": 4
          },
          {
            "id": 4,
            "name": "",
            "parent": 2,
            "size": null,
            "color": "#fff",
            "x0": 8,
            "y0": 8,
            "x1": 441,
            "y1": 492,
            "depth": 2,
            "children": 3
          },
          {
            "id": 7,
            "name": "privaat groen",
            "parent": 3,
            "size": null,
            "color": "#fff",
            "x0": 768,
            "y0": 418,
            "x1": 952,
            "y1": 492,
            "depth": 2,
            "children": 1
          },
          {
            "id": 6,
            "name": "",
            "parent": 3,
            "size": null,
            "color": "#fff",
            "x0": 768,
            "y0": 8,
            "x1": 952,
            "y1": 418,
            "depth": 2,
            "children": 2
          },
          {
            "id": 8,
            "name": "agrarisch",
            "parent": 5,
            "size": 2896,
            "color": "#61b96c",
            "textColor": "#000",
            "x0": 445,
            "y0": 195,
            "x1": 756,
            "y1": 362,
            "depth": 3,
            "children": 0
          },
          {
            "id": 9,
            "name": "natuurlijk",
            "parent": 5,
            "size": 2183,
            "color": "#00a03c ",
            "textColor": "#000",
            "x0": 445,
            "y0": 362,
            "x1": 756,
            "y1": 488,
            "depth": 3,
            "children": 0
          },
          {
            "id": 10,
            "name": "buurtgroen",
            "parent": 5,
            "size": 1866,
            "color": "#cce8cc",
            "textColor": "#000",
            "x0": 445,
            "y0": 12,
            "x1": 628,
            "y1": 195,
            "depth": 3,
            "children": 0
          },
          {
            "id": 11,
            "name": "recreatief",
            "parent": 5,
            "size": 1295,
            "color": "#99d19c",
            "textColor": "#000",
            "x0": 628,
            "y0": 12,
            "x1": 756,
            "y1": 195,
            "depth": 3,
            "children": 0
          },
          {
            "id": 12,
            "name": "weg",
            "parent": 4,
            "size": 3751,
            "color": "#aaa",
            "textColor": "#000",
            "x0": 12,
            "y0": 12,
            "x1": 320,
            "y1": 232,
            "depth": 3,
            "children": 0
          },
          {
            "id": 13,
            "name": "terrein",
            "parent": 4,
            "size": 1430,
            "color": "#ccc",
            "textColor": "#000",
            "x0": 320,
            "y0": 12,
            "x1": 437,
            "y1": 232,
            "depth": 3,
            "children": 0
          },
          {
            "id": 14,
            "name": "water",
            "parent": 4,
            "size": 6020,
            "color": "#009dec",
            "textColor": "#000",
            "x0": 12,
            "y0": 232,
            "x1": 437,
            "y1": 488,
            "depth": 3,
            "children": 0
          },
          {
            "id": 15,
            "name": "erf groen",
            "parent": 7,
            "size": 753,
            "color": "#00a03c",
            "textColor": "#000",
            "x0": 772,
            "y0": 422,
            "x1": 948,
            "y1": 488,
            "depth": 3,
            "children": 0
          },
          {
            "id": 16,
            "name": "bebouwd",
            "parent": 6,
            "size": 2545,
            "color": "#ce0000",
            "textColor": "#fff",
            "x0": 772,
            "y0": 12,
            "x1": 948,
            "y1": 257,
            "depth": 3,
            "children": 0
          },
          {
            "id": 17,
            "name": "erf verhard",
            "parent": 6,
            "size": 1627,
            "color": "#ccc",
            "textColor": "#000",
            "x0": 772,
            "y0": 257,
            "x1": 948,
            "y1": 414,
            "depth": 3,
            "children": 0
          }
        ],
        "transform": [
          {"type": "stratify", "key": "id", "parentKey": "parent"},
          {
            "type": "treemap",
            "field": "size",
            "sort": {"field": "id"},
            "round": true,
            "method": {"signal": "layout"},
            "ratio": {"signal": "aspectRatio"},
            "size": [{"signal": "width"}, {"signal": "height"}],
            "paddingInner": 0,
            "paddingOuter": 4
          }
        ]
      },
      {
        "name": "nodes",
        "source": "tree",
        "transform": [{"type": "filter", "expr": "datum.children"}]
      },
      {
        "name": "leaves",
        "source": "tree",
        "transform": [{"type": "filter", "expr": "!datum.children"}]
      }
    ],
    "scales": [
      {
        "name": "size",
        "type": "ordinal",
        "domain": [0, 1, 2, 3],
        "range": [256, 28, 20, 14]
      },
      {
        "name": "stroke",
        "type": "ordinal",
        "domain": [0, 1, 2, 3],
        "range": [0, 1, 0, 0]
      },
      {
        "name": "opacity",
        "type": "ordinal",
        "domain": [1, 2, 3],
        "range": [1, 0.8, 1]
      }
    ],
    "marks": [
      {
        "type": "rect",
        "from": {"data": "nodes"},
        "interactive": false,
        "encode": {
          "update": {
            "x": {"field": "x0"},
            "y": {"field": "y0"},
            "x2": {"field": "x1"},
            "y2": {"field": "y1"},
            "fill": {"field": "color"},
            "stroke": {"value": "black"},
            "strokeWidth": {"scale": "stroke", "field": "depth"}
          }
        }
      },
      {
        "type": "rect",
        "from": {"data": "leaves"},
        "encode": {
          "enter": {
            "tooltip": {
              "signal": "{type: datum.name, ha: format(datum.size, ',')}"
            }
          },
          "update": {
            "x": {"field": "x0"},
            "y": {"field": "y0"},
            "x2": {"field": "x1"},
            "y2": {"field": "y1"},
            "stroke": {"value": "#fff"},
            "fill": {"field": "color"},
            "opacity": {"value": 1}
          }
        }
      },
      {
        "type": "text",
        "from": {"data": "nodes"},
        "interactive": false,
        "encode": {
          "enter": {
            "font": {"value": "'Amsterdam Sans',arial,sans-serif"},
            "align": {"value": "left"},
            "baseline": {"value": "middle"},
            "fill": {"value": "#000"},
            "text": {"field": "name"},
            "fontSize": {"scale": "size", "field": "depth"},
            "fillOpacity": {"scale": "opacity", "field": "depth"}
          },
          "update": {
            "x": {"signal": "datum.x0 + 10"},
            "y": {"signal": "datum.depth === 2 ? datum.y0 + 20 : -20"}
          }
        }
      },
      {
        "type": "text",
        "from": {"data": "leaves"},
        "interactive": false,
        "encode": {
          "enter": {
            "font": {"value": "'Amsterdam Sans',arial,sans-serif"},
            "align": {"value": "left"},
            "baseline": {"value": "middle"},
            "fill": {"field": "textColor"},
            "text": {
              "signal": "datum.name + ' (' + format(datum.size, ',') + ')'"
            },
            "fontSize": {"scale": "size", "field": "depth"},
            "fillOpacity": {"scale": "opacity", "field": "depth"}
          },
          "update": {
            "x": {"signal": "datum.x0 + 10"},
            "y": {"signal": "datum.y1 - 10"}
          }
        }
      }
    ]
  }