{
    "panels": [
        {
            "heading": "Een lijngrafiek",
            "spec": "./specs/vega/multiLine.vg.json"
        },
        {
            "heading": "Een staafgrafiek",
            "spec": "./specs/vega/bar.vg.json"
        },
        {
            "heading": "En nog een staafgrafiek",
            "spec": "./specs/vega/population.vg.json"
        }
    ],
    "transition": "fade",
    "selectorLabel": " ",
    "selectorType": "buttons"
}