{
  "$schema": "https://onderzoek.amsterdam.nl/static/datavisualisatie-onderzoek-en-statistiek/os-maps.json",
  "view": {
    "latitude": 52.355,
    "longitude": 4.92,
    "zoom": 9.9,
    "minZoom": 9.5,
    "maxZoom": 12
  },
  "layers": [
    {
      "name": "stadsdelen",
      "mark": "geoshape",
      "data": [
        {
          "type": "json",
          "url": "https://onderzoek.amsterdam.nl/static/datavisualisatie-onderzoek-en-statistiek/geo/amsterdam/2022/stadsdelen-2022-geo.json",
          "key": "code"
        },
        {
          "name": "table",
          "key": "gebied",
          "values": [
            {
              "gebied": "A",
              "jaar": 2023,
              "bevolking": 90020
            },
            {
              "gebied": "B",
              "jaar": 2023,
              "bevolking": 1009
            },
            {
              "gebied": "E",
              "jaar": 2023,
              "bevolking": 148569
            },
            {
              "gebied": "F",
              "jaar": 2023,
              "bevolking": 163448
            },
            {
              "gebied": "K",
              "jaar": 2023,
              "bevolking": 148043
            },
            {
              "gebied": "M",
              "jaar": 2023,
              "bevolking": 145852
            },
            {
              "gebied": "N",
              "jaar": 2023,
              "bevolking": 106888
            },
            {
              "gebied": "S",
              "jaar": 2023,
              "bevolking": 23947
            },
            {
              "gebied": "T",
              "jaar": 2023,
              "bevolking": 90417
            }
          ]
        }
      ],
      "encoding": {
        "color": {
          "field": "bevolking",
          "scale": {
            "type": "clusters",
            "range": ["#ebc7dc", "#d590ba", "#bc5898", "#a00078"]
          },
          "legend": {
            "format": ".2s"
          }
        },
        "tooltip": [
          {
            "title": "stadsdeel",
            "field": "naam"
          },
          {
            "field": "bevolking",
            "type": "quantitative"
          }
        ]
      }
    }
  ]
}
