{
  "$schema": "https://onderzoek.amsterdam.nl/static/datavisualisatie-onderzoek-en-statistiek/os-maps.json",
  "height": 500,
  "view": {
    "zoom": 9.9,
    "maxZoom": 20,
    "latitude": 52.355,
    "longitude": 4.92
  },
  "layers": [
    {
      "name": "stadsdelen",
      "mark": "geoshape",
      "data": [
        {
          "type": "json",
          "url": "https://onderzoek.amsterdam.nl/static/datavisualisatie-onderzoek-en-statistiek/geo/amsterdam/2022/stadsdelen-2022-geo.json",
          "key": "code"
        }
      ],
      "encoding": {
        "color": {
          "value": "#ffffff00"
        },
        "tooltip": [
          {
            "title": "Stadsdeel",
            "field": "naam"
          }
        ]
      }
    },
    {
      "name": "bomen",
      "mark": {
        "type": "heatmap"
      },
      "params": [
        {
          "bind": {
            "name": "kies soort",
            "input": "select",
            "options": [
              "Gewone plataan",
              "Zomereik",
              "Schietwilg",
              "Gewone es",
              "Veldesdoorn",
              "Zwarte els",
              "Ruwe berk"
            ]
          },
          "name": "soort",
          "value": "Gewone plataan"
        }
      ],
      "data": [
        {
          "url": "https://cms.onderzoek-en-statistiek.nl/uploads/bomen_amsterdam_975fbc9ea2.csv",
          "type": "dsv",
          "delimiter": ";",
          "transform": [
            {
              "filter": "datum.soort === soort"
            }
          ]
        }
      ],
      "encoding": {
        "opacity": 0.8,
        "color": {
          "scale": {
            "range": ["#00a03c33", "#00a03c66", "#00a03caa", "#00a03cff"]
          }
        }
      }
    }
  ]
}
